{
  "folder": {
    "id": "7c120837-fd62-4f6a-9f4f-2a9c8a435620",
    "name": "Anotehr wifi item",
    "public_key": "tQjp-iByvRM8rV7Lq9X3ocNoox1mSYSYqO9QG3_8VBw",
    "created_at": "2023-02-22T00:47:39.692Z",
    "updated_at": "2023-02-22T00:47:39.692Z",
    "my_encrypted_private_key": "6ZzPtU95t_y3heJTcbrdNeAeJOlwRfaBzsvNACkRwFt4Jmx7msIccbXjYEW_qItxXRlF2pqSMnOlRmxp5hgqS-UzCnrH0zhe2k4r4UNP4tI",
    "folder_memberships": [
      {
        "id": "e88438d1-b31a-4356-b457-ff16aa8355b3",
        "role": "admin",
        "accepted_at": null,
        "created_at": "2023-02-22T00:47:39.708Z",
        "updated_at": "2023-02-22T00:47:39.708Z",
        "accepted": false,
        "pending": true,
        "is_me": false,
        "user": {
          "id": "a3b284a0-897e-445f-a5e3-7bdb955ce44a",
          "email": "bryan@gmail.com",
          "public_key": "420nm7-PRU793iizAMK4-J8cnPGkOv6__m8mCbFZ0DU",
          "display_name": null,
          "picture": null
        }
      },
      {
        "id": "8e62de2b-03d6-4c6d-93da-2fa9ce53ce96",
        "role": "admin",
        "accepted_at": "2023-02-22T00:47:39.710Z",
        "created_at": "2023-02-22T00:47:39.702Z",
        "updated_at": "2023-02-22T00:47:39.710Z",
        "accepted": true,
        "pending": false,
        "is_me": true,
        "user": {
          "id": "ebd34f7f-71f0-4d90-ad8b-73c62b1cf655",
          "email": "fitzgerald@tilig.com",
          "public_key": "rZnFUWWa4eRZ4W3gIpVolghMlWRTpak39SLpxBwGpHQ",
          "display_name": "Fitzgerald",
          "picture": "https://lh3.googleusercontent.com/a/AEdFTp5AXOp5HDDnzof5NeKWbMBTeVBFIOY7OZxColxZ=s96-c"
        }
      }
    ]
  }
}
