{
    "encrypted_private_key":"EroDEoADjyx3ZGP32tJdeV-l08_9RYblsL8_KImaiUp0fLsFxYOCLzY8PKs1uF7qFgqAbX-xN2vXoekfiS1H56YSu1cROZWvCiRvniCEje_Bq_SlrcufZwA2W0dIRpDuOIszSIG7uSmEBSRdc1iqKQnWCTqxQKTQGGOygNT-68xA1OQeL8l_Nk2V5eGHqDPgXkrZSQxFiVxj4TUZBn_-Dv7S5sngVnvlnyq-BFnnk76Rsp9azDKOx0tP16iVhS2Lxd98ZyBG6bTSHnz7RmvG8iC9Y9iuc_TpZINUjQXDQ0y6ruxUOenOg4P5IIY7Pn32Xnu2ikibBFxiYPDyD4AiTnpPmOrr6jLWSQ6TmK4SBP_Ws3Mt0ubN0ew094R5xuD8u60F5R3pb5YFmGLyR5LjedihQFmYxtBDU2uQqtPAqhjTGhGewYWSFrZqYR_fLD-7APcxKkOd1ZaVDwgOjnC_Jxk8vm-HKC5sxSGEZ-ndNXrLW8IAJnRNmTDq9paLxXCAEARnF2dCGhxJeXZpR1N0aGI1V1N1SUJGZG1uWGdZelFpNFgyIhFnZXJ0amFuQHRpbGlnLmNvbSjG2LmeBhpHMEUCIGuHNgz8YRXbBsGeukHHghHdsXP09Gkp6v04WB8oFyXoAiEAhbaQvwHUPKJ7F4i4x7vKwzCziFlWtlqmp-56JOXJOMA",
    "public_key": "gDXeHUspzYALgLqqV_OmSWXMYGYNaruGxgKnZ7QIkiY",
    "key_type": "x25519",
    "meta_data": {
        "app_platform":"iOS",
        "app_version":"iOS 4.8"
    },
    "kid":"Y1a8LGiBynlq0YmIQ21JTCWHda-HSptEg-vq_62wurs"
}
