{
    "id": "05f2d029-7794-40f6-bdc6-d7972244b273",
    "email": "knut@oberfausen.de",
    "display_name": "Knut Oberfausen",
    "given_name": "Knut",
    "family_name": "Oberfausen",
    "locale": "en",
    "public_key": "this-is-the-publick-key",
    "keypair": null
}
